\BOOKMARK [0][-]{chapter.1}{Installation}{}% 1
\BOOKMARK [1][-]{section.1.1}{Dependencies}{chapter.1}% 2
\BOOKMARK [0][-]{chapter.2}{Instrument Model}{}% 3
\BOOKMARK [1][-]{section.2.1}{VIS Instrument Model}{chapter.2}% 4
\BOOKMARK [1][-]{section.2.2}{MTF and PSF}{chapter.2}% 5
\BOOKMARK [1][-]{section.2.3}{Instrument Characteristics}{chapter.2}% 6
\BOOKMARK [2][-]{subsection.2.3.1}{Postprocessing Tools}{section.2.3}% 7
\BOOKMARK [3][-]{subsubsection*.19}{Inserting instrument characteristics}{subsection.2.3.1}% 8
\BOOKMARK [3][-]{subsubsection*.33}{Generating a CCD mosaic}{subsection.2.3.1}% 9
\BOOKMARK [3][-]{subsubsection*.40}{Generating an FPA mosaic}{subsection.2.3.1}% 10
\BOOKMARK [0][-]{chapter.3}{Exposure Times}{}% 11
\BOOKMARK [1][-]{section.3.1}{Exposure Time Calculator}{chapter.3}% 12
\BOOKMARK [2][-]{subsection.3.1.1}{Calculating Exposure Times and Limiting Magnitude}{section.3.1}% 13
\BOOKMARK [0][-]{chapter.4}{Creating Object Catalogs}{}% 14
\BOOKMARK [1][-]{section.4.1}{Generating Object Catalogue}{chapter.4}% 15
\BOOKMARK [1][-]{section.4.2}{Generating Postage Stamp Images}{chapter.4}% 16
\BOOKMARK [0][-]{chapter.5}{Creating Simulated Mock Images}{}% 17
\BOOKMARK [1][-]{section.5.1}{Simulation tools}{chapter.5}% 18
\BOOKMARK [2][-]{subsection.5.1.1}{The Euclid Visible Instrument Image Simulator}{section.5.1}% 19
\BOOKMARK [3][-]{subsubsection*.65}{Dependencies}{subsection.5.1.1}% 20
\BOOKMARK [3][-]{subsubsection*.66}{Testing}{subsection.5.1.1}% 21
\BOOKMARK [3][-]{subsubsection*.67}{Benchmarking}{subsection.5.1.1}% 22
\BOOKMARK [3][-]{subsubsection*.68}{Change Log}{subsection.5.1.1}% 23
\BOOKMARK [3][-]{subsubsection*.69}{Future Work}{subsection.5.1.1}% 24
\BOOKMARK [3][-]{subsubsection*.70}{Contact Information}{subsection.5.1.1}% 25
\BOOKMARK [2][-]{subsection.5.1.2}{Generating Mock Objects with IRAF}{section.5.1}% 26
\BOOKMARK [0][-]{chapter.6}{Data reduction}{}% 27
\BOOKMARK [1][-]{section.6.1}{Data reduction tools}{chapter.6}% 28
\BOOKMARK [2][-]{subsection.6.1.1}{VIS Data Reduction and Processing}{section.6.1}% 29
\BOOKMARK [1][-]{section.6.2}{VIS data reduction studies}{chapter.6}% 30
\BOOKMARK [2][-]{subsection.6.2.1}{Bias Calibration}{section.6.2}% 31
\BOOKMARK [2][-]{subsection.6.2.2}{Flat Field Calibration}{section.6.2}% 32
\BOOKMARK [2][-]{subsection.6.2.3}{Non-linearity I: Detection Chain}{section.6.2}% 33
\BOOKMARK [2][-]{subsection.6.2.4}{Testing the CTI Correction Algorithm}{section.6.2}% 34
\BOOKMARK [2][-]{subsection.6.2.5}{Cosmic Ray Rejection}{section.6.2}% 35
\BOOKMARK [2][-]{subsection.6.2.6}{Impact of Ghost Images}{section.6.2}% 36
\BOOKMARK [2][-]{subsection.6.2.7}{Non-linearity II: Model Transfer}{section.6.2}% 37
\BOOKMARK [2][-]{subsection.6.2.8}{Background Subtraction}{section.6.2}% 38
\BOOKMARK [0][-]{chapter.7}{Data Analysis}{}% 39
\BOOKMARK [1][-]{section.7.1}{VIS data analysis tools}{chapter.7}% 40
\BOOKMARK [2][-]{subsection.7.1.1}{Object finding and measuring ellipticity}{section.7.1}% 41
\BOOKMARK [2][-]{subsection.7.1.2}{Measuring a shape of an object}{section.7.1}% 42
\BOOKMARK [2][-]{subsection.7.1.3}{Source finding}{section.7.1}% 43
\BOOKMARK [2][-]{subsection.7.1.4}{Properties of the Point Spread Function}{section.7.1}% 44
\BOOKMARK [2][-]{subsection.7.1.5}{Generating PSF Basis Sets}{section.7.1}% 45
\BOOKMARK [2][-]{subsection.7.1.6}{PSF Fitting}{section.7.1}% 46
\BOOKMARK [2][-]{subsection.7.1.7}{Impact of CTI Trailing on Shear Power Spectrum}{section.7.1}% 47
\BOOKMARK [2][-]{subsection.7.1.8}{Saturated Imaging Area}{section.7.1}% 48
\BOOKMARK [2][-]{subsection.7.1.9}{Cosmic Rays}{section.7.1}% 49
\BOOKMARK [0][-]{chapter.8}{Charge Transfer Inefficiency}{}% 50
\BOOKMARK [1][-]{section.8.1}{Fortran code for CTI}{chapter.8}% 51
\BOOKMARK [0][-]{chapter.9}{Supporting methods and files}{}% 52
\BOOKMARK [1][-]{section.9.1}{Objects}{chapter.9}% 53
\BOOKMARK [1][-]{section.9.2}{Code}{chapter.9}% 54
\BOOKMARK [0][-]{chapter.10}{Photometric Accuracy}{}% 55
\BOOKMARK [0][-]{chapter.11}{Supporting Methods}{}% 56
\BOOKMARK [1][-]{section.11.1}{Supporting Methods}{chapter.11}% 57
\BOOKMARK [2][-]{subsection.11.1.1}{CCD Charge Bleeding}{section.11.1}% 58
\BOOKMARK [2][-]{subsection.11.1.2}{File Conversions}{section.11.1}% 59
\BOOKMARK [2][-]{subsection.11.1.3}{CCD Cosmetics Maps}{section.11.1}% 60
\BOOKMARK [2][-]{subsection.11.1.4}{Cosmic Rays}{section.11.1}% 61
\BOOKMARK [2][-]{subsection.11.1.5}{GPU Convolution}{section.11.1}% 62
\BOOKMARK [2][-]{subsection.11.1.6}{Image Manipulations}{section.11.1}% 63
\BOOKMARK [0][-]{chapter.12}{Indices and tables}{}% 64
\BOOKMARK [0][-]{section*.279}{Python Module Index}{}% 65
\BOOKMARK [0][-]{section*.280}{Index}{}% 66
